Regist EdgeX
Adding addressable for "hecas-device-switch-service-addressable"
Duplicate name for addressable

Adding video service for "hecas-switcher-deviceservice"
Duplicate name for the device service

Adding video profile for "device-switch"
Duplicate name for device profile

Adding video information for "hecas-switcher-device"
Duplicate name for device

Install python package
Reading package lists...
Building dependency tree...
Reading state information...
python-pip is already the newest version (8.1.1-2ubuntu0.4).
0 upgraded, 0 newly installed, 0 to remove and 41 not upgraded.
The directory '/home/jack/.cache/pip/http' or its parent directory is not owned by the current user and the cache has been disabled. Please check the permissions and owner of that directory. If executing pip with sudo, you may want sudo's -H flag.
The directory '/home/jack/.cache/pip' or its parent directory is not owned by the current user and caching wheels has been disabled. check the permissions and owner of that directory. If executing pip with sudo, you may want sudo's -H flag.
Requirement already satisfied (use --upgrade to upgrade): flask in /usr/local/lib/python2.7/dist-packages
Requirement already satisfied (use --upgrade to upgrade): flask_restful in /usr/local/lib/python2.7/dist-packages
Requirement already satisfied (use --upgrade to upgrade): consulate in /usr/local/lib/python2.7/dist-packages
Requirement already satisfied (use --upgrade to upgrade): Jinja2>=2.10 in /usr/local/lib/python2.7/dist-packages (from flask)
Requirement already satisfied (use --upgrade to upgrade): itsdangerous>=0.24 in /usr/local/lib/python2.7/dist-packages (from flask)
Requirement already satisfied (use --upgrade to upgrade): Werkzeug>=0.14 in /usr/local/lib/python2.7/dist-packages (from flask)
Requirement already satisfied (use --upgrade to upgrade): click>=5.1 in /usr/local/lib/python2.7/dist-packages (from flask)
Requirement already satisfied (use --upgrade to upgrade): aniso8601>=0.82 in /usr/local/lib/python2.7/dist-packages (from flask_restful)
Requirement already satisfied (use --upgrade to upgrade): pytz in /usr/local/lib/python2.7/dist-packages (from flask_restful)
Requirement already satisfied (use --upgrade to upgrade): six>=1.3.0 in /usr/lib/python2.7/dist-packages (from flask_restful)
Requirement already satisfied (use --upgrade to upgrade): requests<3.0.0,>=2.0.0 in /usr/lib/python2.7/dist-packages (from consulate)
Requirement already satisfied (use --upgrade to upgrade): MarkupSafe>=0.23 in /usr/local/lib/python2.7/dist-packages (from Jinja2>=2.10->flask)
You are using pip version 8.1.1, however version 18.0 is available.
You should consider upgrading via the 'pip install --upgrade pip' command.
Regist Consul
Register device-switch to the localhost Consul
Find device-switch service by service id from the localhost Consul
[{u'Node': u'edgex-core-consul', u'Datacenter': u'dc1', u'CreateIndex': 4404, u'ServiceMeta': {}, u'ServiceName': u'hecas-device-switch', u'TaggedAddresses': {u'wan': u'127.0.0.1', u'lan': u'127.0.0.1'}, u'ModifyIndex': 4476, u'ServicePort': 5000, u'ServiceID': u'hecas-device-switch', u'ServiceAddress': u'10.0.2.15', u'Address': u'127.0.0.1', u'ServiceTags': [], u'NodeMeta': {u'consul-network-segment': u''}, u'ServiceEnableTagOverride': False, u'ID': u'4a47c281-985f-c73a-5b4e-a7bf97703f4f'}]
 * Serving Flask app "edgex_switcher_healthcheck" (lazy loading)
 * Environment: production
   WARNING: Do not use the development server in a production environment.
   Use a production WSGI server instead.
 * Debug mode: on
 * Running on http://0.0.0.0:5000/ (Press CTRL+C to quit)
 * Restarting with stat
 * Debugger is active!
 * Debugger PIN: 735-883-192
172.19.0.3 - - [16/Sep/2018 13:24:57] "GET /health HTTP/1.1" 200 -
172.19.0.3 - - [16/Sep/2018 13:25:07] "GET /health HTTP/1.1" 200 -
172.19.0.3 - - [16/Sep/2018 13:25:17] "GET /health HTTP/1.1" 200 -
172.19.0.3 - - [16/Sep/2018 13:25:27] "GET /health HTTP/1.1" 200 -
172.19.0.3 - - [16/Sep/2018 13:25:37] "GET /health HTTP/1.1" 200 -
172.19.0.3 - - [16/Sep/2018 13:25:47] "GET /health HTTP/1.1" 200 -
172.19.0.3 - - [16/Sep/2018 13:25:57] "GET /health HTTP/1.1" 200 -
172.19.0.3 - - [16/Sep/2018 13:26:07] "GET /health HTTP/1.1" 200 -
172.19.0.3 - - [16/Sep/2018 13:26:17] "GET /health HTTP/1.1" 200 -
172.19.0.3 - - [16/Sep/2018 13:26:27] "GET /health HTTP/1.1" 200 -
172.19.0.3 - - [16/Sep/2018 13:26:37] "GET /health HTTP/1.1" 200 -
172.19.0.3 - - [16/Sep/2018 13:26:47] "GET /health HTTP/1.1" 200 -
172.19.0.3 - - [16/Sep/2018 13:26:57] "GET /health HTTP/1.1" 200 -
172.19.0.3 - - [16/Sep/2018 13:27:07] "GET /health HTTP/1.1" 200 -
